{
  "Comment.nvim": { "branch": "master", "commit": "0236521ea582747b58869cb72f70ccfa967d2e89" },
  "LuaSnip": { "branch": "master", "commit": "57c9f5c31b3d712376c704673eac8e948c82e9c1" },
  "autoclose.nvim": { "branch": "main", "commit": "37e11589aac55b0e8810dc5865f898f9cb36fef6" },
  "bufferline.nvim": { "branch": "main", "commit": "6c456b888823d9e4832aa91c482bccd19445c009" },
  "cmp-buffer": { "branch": "main", "commit": "3022dbc9166796b644a841a02de8dd1cc1d311fa" },
  "cmp-nvim-lsp": { "branch": "main", "commit": "5af77f54de1b16c34b23cba810150689a3a90312" },
  "cmp-nvim-lua": { "branch": "main", "commit": "f12408bdb54c39c23e67cab726264c10db33ada8" },
  "cmp-path": { "branch": "main", "commit": "91ff86cd9c29299a64f968ebb45846c485725f23" },
  "cmp_luasnip": { "branch": "master", "commit": "05a9ab28b53f71d1aece421ef32fee2cb857a843" },
  "friendly-snippets": { "branch": "main", "commit": "53d3df271d031c405255e99410628c26a8f0d2b0" },
  "gitsigns.nvim": { "branch": "main", "commit": "d195f0c35ced5174d3ecce1c4c8ebb3b5bc23fa9" },
  "indent-blankline.nvim": { "branch": "master", "commit": "f3eb33c04c3c5028b4efa7dbf8f68abdb6ab50ed" },
  "lazy.nvim": { "branch": "main", "commit": "96584866b9c5e998cbae300594d0ccfd0c464627" },
  "lsp-zero.nvim": { "branch": "v3.x", "commit": "b9044716e675354357ab8269ccf7bd0fcdc0991e" },
  "mason-lspconfig.nvim": { "branch": "main", "commit": "9453e3d6cd2ca45d96e20f343e8f1b927364b630" },
  "mason.nvim": { "branch": "main", "commit": "41e75af1f578e55ba050c863587cffde3556ffa6" },
  "neodev.nvim": { "branch": "main", "commit": "018e1161ed771ef2b54f346240bcf69931594396" },
  "nvim-cmp": { "branch": "main", "commit": "538e37ba87284942c1d76ed38dd497e54e65b891" },
  "nvim-lspconfig": { "branch": "master", "commit": "e85816c5803410cacb52e9b4fbdb72a1f1a6bd11" },
  "nvim-treesitter": { "branch": "master", "commit": "0dfbf5e48e8551212c2a9f1c74cb080c8e76b5d1" },
  "nvim-treesitter-textobjects": { "branch": "master", "commit": "ec1c5bdb3d87ac971749fa6c7dbc2b14884f1f6a" },
  "nvim-web-devicons": { "branch": "master", "commit": "a1425903ab52a0a0460622519e827f224e5b4fee" },
  "plenary.nvim": { "branch": "master", "commit": "55d9fe89e33efd26f532ef20223e5f9430c8b0c0" },
  "todo-comments.nvim": { "branch": "main", "commit": "4a6737a8d70fe1ac55c64dfa47fcb189ca431872" },
  "tokyonight.nvim": { "branch": "main", "commit": "f247ee700b569ed43f39320413a13ba9b0aef0db" },
  "undotree": { "branch": "master", "commit": "36ff7abb6b60980338344982ad4cdf03f7961ecd" },
  "vim-bbye": { "branch": "master", "commit": "25ef93ac5a87526111f43e5110675032dbcacf56" },
  "vim-fugitive": { "branch": "master", "commit": "59659093581aad2afacedc81f009ed6a4bfad275" },
  "vim-rhubarb": { "branch": "master", "commit": "ee69335de176d9325267b0fd2597a22901d927b1" }
}